{
  "basic-metrics" : {
    "string-graph-nodes" : 2492,
    "string-graph-edges" : 3001,
    "string-graph-tainted-node-percent" : "3.89",
    "string-graph-sink-reachable-node-percent" : "2.89",
    "string-graph-tainted-fn-percent" : "6.58",
    "string-graph-sink-reachable-fn-percent" : "4.84",
    "edges_with_penalties" : 5,
    "total components" : 9,
    "total keys in components" : 13,
    "average keys in a component" : "1.44",
    "max key in a component" : 3,
    "max key in a component" : 3,
    "password-source-nodes" : 5
  },
  "memory-metrics" : {
    "predicted-string-graph-memory" : 1886397,
    "analyze_dataflow1_post_DATAFLOW_ANALYSIS1_phase" : {
      "resident_memory" : 525234176,
      "peak_resident_memory" : 530259968,
      "virtual_memory" : 551723008,
      "peak_virtual_memory" : 558682112
    },
    "analyze_dataflow1_pre_DATAFLOW_ANALYSIS1_phase" : {
      "resident_memory" : 525234176,
      "peak_resident_memory" : 530259968,
      "virtual_memory" : 551723008,
      "peak_virtual_memory" : 558682112
    },
    "analyze_dataflow2_post_DATAFLOW_ANALYSIS2_phase" : {
      "resident_memory" : 525565952,
      "peak_resident_memory" : 530259968,
      "virtual_memory" : 551723008,
      "peak_virtual_memory" : 558682112
    },
    "analyze_dataflow2_pre_DATAFLOW_ANALYSIS2_phase" : {
      "resident_memory" : 525565952,
      "peak_resident_memory" : 530259968,
      "virtual_memory" : 551723008,
      "peak_virtual_memory" : 558682112
    },
    "xss_XSS_after_creating_rules" : {
      "resident_memory" : 525565952,
      "peak_resident_memory" : 530259968,
      "virtual_memory" : 551723008,
      "peak_virtual_memory" : 558682112
    },
    "xss_XSS_after_finding_states" : {
      "resident_memory" : 525565952,
      "peak_resident_memory" : 530259968,
      "virtual_memory" : 551723008,
      "peak_virtual_memory" : 558682112
    },
    "xss_XSS_before_creating_rules" : {
      "resident_memory" : 525565952,
      "peak_resident_memory" : 530259968,
      "virtual_memory" : 551723008,
      "peak_virtual_memory" : 558682112
    },
    "xss_XSS_before_finding_states" : {
      "resident_memory" : 525565952,
      "peak_resident_memory" : 530259968,
      "virtual_memory" : 551723008,
      "peak_virtual_memory" : 558682112
    },
    "xss_after_XSS_checker_cleanup" : {
      "resident_memory" : 525565952,
      "peak_resident_memory" : 530259968,
      "virtual_memory" : 551723008,
      "peak_virtual_memory" : 558682112
    },
    "xss_after_XSS_checker_run" : {
      "resident_memory" : 525565952,
      "peak_resident_memory" : 530259968,
      "virtual_memory" : 551723008,
      "peak_virtual_memory" : 558682112
    },
    "xss_after_creating_XSS_defects" : {
      "resident_memory" : 525565952,
      "peak_resident_memory" : 530259968,
      "virtual_memory" : 551723008,
      "peak_virtual_memory" : 558682112
    },
    "xss_before_XSS_checker_run" : {
      "resident_memory" : 525565952,
      "peak_resident_memory" : 530259968,
      "virtual_memory" : 551723008,
      "peak_virtual_memory" : 558682112
    }
  },
  "state-derivation-search-metrics" : {},
  "candidate-graph-search-metrics" : {
    "EL_INJECTION_stats" : {
      "node_limit" : 0,
      "confidence_penalty_limit" : 0,
      "edge_limit" : 0,
      "fields_limit" : 0,
      "subset_stats" : {
        "success_guard" : {
          "node_limit" : 0
        },
        "fail_guard" : {
          "node_limit" : 0
        },
        "success_stats" : {
          "node_limit" : 0
        },
        "fail_stats" : {
          "node_limit" : 0
        }
      }
    },
    "JAVA_CODE_INJECTION_stats" : {
      "node_limit" : 0,
      "confidence_penalty_limit" : 0,
      "edge_limit" : 0,
      "fields_limit" : 0,
      "subset_stats" : {
        "success_guard" : {
          "node_limit" : 0
        },
        "fail_guard" : {
          "node_limit" : 0
        },
        "success_stats" : {
          "node_limit" : 0
        },
        "fail_stats" : {
          "node_limit" : 0
        }
      }
    },
    "JCR_INJECTION_stats" : {
      "node_limit" : 0,
      "confidence_penalty_limit" : 0,
      "edge_limit" : 0,
      "fields_limit" : 0,
      "subset_stats" : {
        "success_guard" : {
          "node_limit" : 0
        },
        "fail_guard" : {
          "node_limit" : 0
        },
        "success_stats" : {
          "node_limit" : 0
        },
        "fail_stats" : {
          "node_limit" : 0
        }
      }
    },
    "JSP_DYNAMIC_INCLUDE_stats" : {
      "node_limit" : 0,
      "confidence_penalty_limit" : 0,
      "edge_limit" : 0,
      "fields_limit" : 0,
      "subset_stats" : {
        "success_guard" : {
          "node_limit" : 0
        },
        "fail_guard" : {
          "node_limit" : 0
        },
        "success_stats" : {
          "node_limit" : 0
        },
        "fail_stats" : {
          "node_limit" : 0
        }
      }
    },
    "JSP_SQL_INJECTION_stats" : {
      "node_limit" : 0,
      "confidence_penalty_limit" : 0,
      "edge_limit" : 0,
      "fields_limit" : 0,
      "subset_stats" : {
        "success_guard" : {
          "node_limit" : 0
        },
        "fail_guard" : {
          "node_limit" : 0
        },
        "success_stats" : {
          "node_limit" : 0
        },
        "fail_stats" : {
          "node_limit" : 0
        }
      }
    },
    "LDAP_INJECTION_stats" : {
      "node_limit" : 0,
      "confidence_penalty_limit" : 0,
      "edge_limit" : 0,
      "fields_limit" : 0,
      "subset_stats" : {
        "success_guard" : {
          "node_limit" : 0
        },
        "fail_guard" : {
          "node_limit" : 0
        },
        "success_stats" : {
          "node_limit" : 0
        },
        "fail_stats" : {
          "node_limit" : 0
        }
      }
    },
    "OGNL_INJECTION_stats" : {
      "node_limit" : 0,
      "confidence_penalty_limit" : 0,
      "edge_limit" : 0,
      "fields_limit" : 0,
      "subset_stats" : {
        "success_guard" : {
          "node_limit" : 0
        },
        "fail_guard" : {
          "node_limit" : 0
        },
        "success_stats" : {
          "node_limit" : 0
        },
        "fail_stats" : {
          "node_limit" : 0
        }
      }
    },
    "SENSITIVE_DATA_LEAK_INTERNAL_stats" : {
      "node_limit" : 0,
      "confidence_penalty_limit" : 0,
      "edge_limit" : 0,
      "fields_limit" : 0,
      "subset_stats" : {
        "success_guard" : {
          "node_limit" : 0
        },
        "fail_guard" : {
          "node_limit" : 0
        },
        "success_stats" : {
          "node_limit" : 0
        },
        "fail_stats" : {
          "node_limit" : 0
        }
      }
    },
    "SESSION_FIXATION_stats" : {
      "node_limit" : 0,
      "confidence_penalty_limit" : 0,
      "edge_limit" : 0,
      "fields_limit" : 0,
      "subset_stats" : {
        "success_guard" : {
          "node_limit" : 0
        },
        "fail_guard" : {
          "node_limit" : 0
        },
        "success_stats" : {
          "node_limit" : 0
        },
        "fail_stats" : {
          "node_limit" : 0
        }
      }
    },
    "TRUST_BOUNDARY_VIOLATION_stats" : {
      "node_limit" : 0,
      "confidence_penalty_limit" : 0,
      "edge_limit" : 0,
      "fields_limit" : 0,
      "subset_stats" : {
        "success_guard" : {
          "node_limit" : 0
        },
        "fail_guard" : {
          "node_limit" : 0
        },
        "success_stats" : {
          "node_limit" : 0
        },
        "fail_stats" : {
          "node_limit" : 0
        }
      }
    },
    "UNENCRYPTED_SENSITIVE_DATA_INTERNAL_stats" : {
      "node_limit" : 0,
      "confidence_penalty_limit" : 0,
      "edge_limit" : 0,
      "fields_limit" : 0,
      "subset_stats" : {
        "success_guard" : {
          "node_limit" : 0
        },
        "fail_guard" : {
          "node_limit" : 0
        },
        "success_stats" : {
          "node_limit" : 0
        },
        "fail_stats" : {
          "node_limit" : 0
        }
      }
    },
    "UNKNOWN_LANGUAGE_INJECTION_stats" : {
      "node_limit" : 0,
      "confidence_penalty_limit" : 0,
      "edge_limit" : 0,
      "fields_limit" : 0,
      "subset_stats" : {
        "success_guard" : {
          "node_limit" : 0
        },
        "fail_guard" : {
          "node_limit" : 0
        },
        "success_stats" : {
          "node_limit" : 0
        },
        "fail_stats" : {
          "node_limit" : 0
        }
      }
    },
    "UNRESTRICTED_DISPATCH_stats" : {
      "node_limit" : 0,
      "confidence_penalty_limit" : 0,
      "edge_limit" : 0,
      "fields_limit" : 0,
      "subset_stats" : {
        "success_guard" : {
          "node_limit" : 0
        },
        "fail_guard" : {
          "node_limit" : 0
        },
        "success_stats" : {
          "node_limit" : 0
        },
        "fail_stats" : {
          "node_limit" : 0
        }
      }
    },
    "UNSAFE_NAMED_QUERY_stats" : {
      "node_limit" : 0,
      "confidence_penalty_limit" : 0,
      "edge_limit" : 0,
      "fields_limit" : 0,
      "subset_stats" : {
        "success_guard" : {
          "node_limit" : 0
        },
        "fail_guard" : {
          "node_limit" : 0
        },
        "success_stats" : {
          "node_limit" : 0
        },
        "fail_stats" : {
          "node_limit" : 0
        }
      }
    },
    "URL_MANIPULATION_stats" : {
      "node_limit" : 0,
      "confidence_penalty_limit" : 0,
      "edge_limit" : 0,
      "fields_limit" : 0,
      "subset_stats" : {
        "success_guard" : {
          "node_limit" : 0
        },
        "fail_guard" : {
          "node_limit" : 0
        },
        "success_stats" : {
          "node_limit" : 0
        },
        "fail_stats" : {
          "node_limit" : 0
        }
      }
    },
    "__HEADER_INJECTION_STATICS_stats" : {
      "node_limit" : 0,
      "confidence_penalty_limit" : 0,
      "edge_limit" : 0,
      "fields_limit" : 0,
      "subset_stats" : {
        "success_guard" : {
          "node_limit" : 0
        },
        "fail_guard" : {
          "node_limit" : 0
        },
        "success_stats" : {
          "node_limit" : 0
        },
        "fail_stats" : {
          "node_limit" : 0
        }
      }
    },
    "__INSECURE_RANDOM_STRING_GRAPH_INTERNAL_stats" : {
      "node_limit" : 0,
      "confidence_penalty_limit" : 0,
      "edge_limit" : 0,
      "fields_limit" : 0,
      "subset_stats" : {
        "success_guard" : {
          "node_limit" : 0
        },
        "fail_guard" : {
          "node_limit" : 0
        },
        "success_stats" : {
          "node_limit" : 0
        },
        "fail_stats" : {
          "node_limit" : 0
        }
      }
    },
    "__NOSQL_QUERY_INJECTION_STATICS_stats" : {
      "node_limit" : 0,
      "confidence_penalty_limit" : 0,
      "edge_limit" : 0,
      "fields_limit" : 0,
      "subset_stats" : {
        "success_guard" : {
          "node_limit" : 0
        },
        "fail_guard" : {
          "node_limit" : 0
        },
        "success_stats" : {
          "node_limit" : 0
        },
        "fail_stats" : {
          "node_limit" : 0
        }
      }
    },
    "__OS_CMD_INJECTION_STRING_GRAPH_INTERNAL_stats" : {
      "node_limit" : 0,
      "confidence_penalty_limit" : 0,
      "edge_limit" : 0,
      "fields_limit" : 0,
      "subset_stats" : {
        "success_guard" : {
          "node_limit" : 0
        },
        "fail_guard" : {
          "node_limit" : 0
        },
        "success_stats" : {
          "node_limit" : 0
        },
        "fail_stats" : {
          "node_limit" : 0
        }
      }
    },
    "__PATH_MANIPULATION_STRING_GRAPH_INTERNAL_stats" : {
      "node_limit" : 0,
      "confidence_penalty_limit" : 0,
      "edge_limit" : 0,
      "fields_limit" : 0,
      "subset_stats" : {
        "success_guard" : {
          "node_limit" : 0
        },
        "fail_guard" : {
          "node_limit" : 0
        },
        "success_stats" : {
          "node_limit" : 0
        },
        "fail_stats" : {
          "node_limit" : 0
        }
      }
    },
    "__REGEX_INJECTION_STATICS_stats" : {
      "node_limit" : 0,
      "confidence_penalty_limit" : 0,
      "edge_limit" : 0,
      "fields_limit" : 0,
      "subset_stats" : {
        "success_guard" : {
          "node_limit" : 0
        },
        "fail_guard" : {
          "node_limit" : 0
        },
        "success_stats" : {
          "node_limit" : 0
        },
        "fail_stats" : {
          "node_limit" : 0
        }
      }
    },
    "__SCRIPT_CODE_INJECTION_STATICS_stats" : {
      "node_limit" : 0,
      "confidence_penalty_limit" : 0,
      "edge_limit" : 0,
      "fields_limit" : 0,
      "subset_stats" : {
        "success_guard" : {
          "node_limit" : 0
        },
        "fail_guard" : {
          "node_limit" : 0
        },
        "success_stats" : {
          "node_limit" : 0
        },
        "fail_stats" : {
          "node_limit" : 0
        }
      }
    },
    "__SQLI_STRING_GRAPH_INTERNAL_stats" : {
      "node_limit" : 0,
      "confidence_penalty_limit" : 0,
      "edge_limit" : 0,
      "fields_limit" : 0,
      "subset_stats" : {
        "success_guard" : {
          "node_limit" : 0
        },
        "fail_guard" : {
          "node_limit" : 0
        },
        "success_stats" : {
          "node_limit" : 0
        },
        "fail_stats" : {
          "node_limit" : 0
        }
      }
    },
    "__TAINTED_ENVIRONMENT_WITH_EXECUTION_STATICS_stats" : {
      "node_limit" : 0,
      "confidence_penalty_limit" : 0,
      "edge_limit" : 0,
      "fields_limit" : 0,
      "subset_stats" : {
        "success_guard" : {
          "node_limit" : 0
        },
        "fail_guard" : {
          "node_limit" : 0
        },
        "success_stats" : {
          "node_limit" : 0
        },
        "fail_stats" : {
          "node_limit" : 0
        }
      }
    },
    "__UNSAFE_DESERIALIZATION_STATICS_stats" : {
      "node_limit" : 0,
      "confidence_penalty_limit" : 0,
      "edge_limit" : 0,
      "fields_limit" : 0,
      "subset_stats" : {
        "success_guard" : {
          "node_limit" : 0
        },
        "fail_guard" : {
          "node_limit" : 0
        },
        "success_stats" : {
          "node_limit" : 0
        },
        "fail_stats" : {
          "node_limit" : 0
        }
      }
    },
    "__UNSAFE_JNI_STATICS_stats" : {
      "node_limit" : 0,
      "confidence_penalty_limit" : 0,
      "edge_limit" : 0,
      "fields_limit" : 0,
      "subset_stats" : {
        "success_guard" : {
          "node_limit" : 0
        },
        "fail_guard" : {
          "node_limit" : 0
        },
        "success_stats" : {
          "node_limit" : 0
        },
        "fail_stats" : {
          "node_limit" : 0
        }
      }
    },
    "__UNSAFE_REFLECTION_STATICS_stats" : {
      "node_limit" : 0,
      "confidence_penalty_limit" : 0,
      "edge_limit" : 0,
      "fields_limit" : 0,
      "subset_stats" : {
        "success_guard" : {
          "node_limit" : 0
        },
        "fail_guard" : {
          "node_limit" : 0
        },
        "success_stats" : {
          "node_limit" : 0
        },
        "fail_stats" : {
          "node_limit" : 0
        }
      }
    },
    "__WEAK_GUARD_STRING_GRAPH_INTERNAL_stats" : {
      "node_limit" : 0,
      "confidence_penalty_limit" : 0,
      "edge_limit" : 0,
      "fields_limit" : 0,
      "subset_stats" : {
        "success_guard" : {
          "node_limit" : 0
        },
        "fail_guard" : {
          "node_limit" : 0
        },
        "success_stats" : {
          "node_limit" : 0
        },
        "fail_stats" : {
          "node_limit" : 0
        }
      }
    },
    "__WEAK_PASSWORD_HASH_STRING_GRAPH_INTERNAL_stats" : {
      "node_limit" : 0,
      "confidence_penalty_limit" : 0,
      "edge_limit" : 0,
      "fields_limit" : 0,
      "subset_stats" : {
        "success_guard" : {
          "node_limit" : 0
        },
        "fail_guard" : {
          "node_limit" : 0
        },
        "success_stats" : {
          "node_limit" : 0
        },
        "fail_stats" : {
          "node_limit" : 0
        }
      }
    },
    "__XML_EXTERNAL_ENTITY_STRING_GRAPH_INTERNAL_stats" : {
      "node_limit" : 0,
      "confidence_penalty_limit" : 0,
      "edge_limit" : 0,
      "fields_limit" : 0,
      "subset_stats" : {
        "success_guard" : {
          "node_limit" : 0
        },
        "fail_guard" : {
          "node_limit" : 0
        },
        "success_stats" : {
          "node_limit" : 0
        },
        "fail_stats" : {
          "node_limit" : 0
        }
      }
    },
    "__XPATH_INJECTION_STATICS_stats" : {
      "node_limit" : 0,
      "confidence_penalty_limit" : 0,
      "edge_limit" : 0,
      "fields_limit" : 0,
      "subset_stats" : {
        "success_guard" : {
          "node_limit" : 0
        },
        "fail_guard" : {
          "node_limit" : 0
        },
        "success_stats" : {
          "node_limit" : 0
        },
        "fail_stats" : {
          "node_limit" : 0
        }
      }
    },
    "xss_stats" : {
      "node_limit" : 0,
      "confidence_penalty_limit" : 0,
      "edge_limit" : 0,
      "fields_limit" : 0,
      "subset_stats" : {
        "success_guard" : {
          "node_limit" : 0
        },
        "fail_guard" : {
          "node_limit" : 0
        },
        "success_stats" : {
          "node_limit" : 0
        },
        "fail_stats" : {
          "node_limit" : 0
        }
      }
    }
  }
}
